{
  "Response": {
    "Message-Body": "{\"comments\":5,\"closed_at\":\"2014-10-31T20:08:23Z\",\"assignees\":[],\"created_at\":\"2014-10-31T17:22:22Z\",\"title\":\"Multimaps.newListMultimap should document that map must be empty\",\"body\":\"_[Original issue](https:\\/\\/code.google.com\\/p\\/guava-libraries\\/issues\\/detail?id=736) created by **dancerjohn** on 2011-10-04 at 06:29 PM_\\n\\n---\\n\\nIf the map passed to Multimaps.newListMultimap is not empty an IllegalArgumentException is thrown. This should be documented. \\n\\nLooking at this method I thought I could use it to create a copy or a view of an existing Map&lt;K, Collection&lt;V>>. There is a not a way to do this and I will open another issue to address that issue.\",\"url\":\"https:\\/\\/api.github.com\\/repos\\/google\\/guava\\/issues\\/736\",\"labels\":[{\"url\":\"https:\\/\\/api.github.com\\/repos\\/google\\/guava\\/labels\\/status%3A+fixed\",\"name\":\"status: fixed\",\"color\":\"009800\"},{\"url\":\"https:\\/\\/api.github.com\\/repos\\/google\\/guava\\/labels\\/type%3A+defect\",\"name\":\"type: defect\",\"color\":\"e11d21\"}],\"labels_url\":\"https:\\/\\/api.github.com\\/repos\\/google\\/guava\\/issues\\/736\\/labels{\\/name}\",\"number\":736,\"milestone\":{\"url\":\"https:\\/\\/api.github.com\\/repos\\/google\\/guava\\/milestones\\/6\",\"labels_url\":\"https:\\/\\/api.github.com\\/repos\\/google\\/guava\\/milestones\\/6\\/labels\",\"id\":849118,\"number\":6,\"title\":\"11.0\",\"description\":\"\",\"creator\":{\"login\":\"cgdecker\",\"id\":101568,\"avatar_url\":\"https:\\/\\/avatars.githubusercontent.com\\/u\\/101568?v=3\",\"gravatar_id\":\"\",\"url\":\"https:\\/\\/api.github.com\\/users\\/cgdecker\",\"html_url\":\"https:\\/\\/github.com\\/cgdecker\",\"followers_url\":\"https:\\/\\/api.github.com\\/users\\/cgdecker\\/followers\",\"following_url\":\"https:\\/\\/api.github.com\\/users\\/cgdecker\\/following{\\/other_user}\",\"gists_url\":\"https:\\/\\/api.github.com\\/users\\/cgdecker\\/gists{\\/gist_id}\",\"starred_url\":\"https:\\/\\/api.github.com\\/users\\/cgdecker\\/starred{\\/owner}{\\/repo}\",\"subscriptions_url\":\"https:\\/\\/api.github.com\\/users\\/cgdecker\\/subscriptions\",\"organizations_url\":\"https:\\/\\/api.github.com\\/users\\/cgdecker\\/orgs\",\"repos_url\":\"https:\\/\\/api.github.com\\/users\\/cgdecker\\/repos\",\"events_url\":\"https:\\/\\/api.github.com\\/users\\/cgdecker\\/events{\\/privacy}\",\"received_events_url\":\"https:\\/\\/api.github.com\\/users\\/cgdecker\\/received_events\",\"type\":\"User\",\"site_admin\":false},\"open_issues\":0,\"closed_issues\":25,\"state\":\"closed\",\"created_at\":\"2014-11-01T03:46:46Z\",\"updated_at\":\"2014-11-06T23:12:24Z\",\"due_on\":null,\"closed_at\":\"2014-11-06T23:12:24Z\"},\"updated_at\":\"2014-10-31T20:08:23Z\",\"html_url\":\"https:\\/\\/github.com\\/google\\/guava\\/issues\\/736\",\"id\":47420734,\"state\":\"closed\",\"assignee\":null,\"locked\":false,\"user\":{\"login\":\"gissuebot\",\"id\":8091570,\"avatar_url\":\"https:\\/\\/avatars.githubusercontent.com\\/u\\/8091570?v=3\",\"gravatar_id\":\"\",\"url\":\"https:\\/\\/api.github.com\\/users\\/gissuebot\",\"html_url\":\"https:\\/\\/github.com\\/gissuebot\",\"followers_url\":\"https:\\/\\/api.github.com\\/users\\/gissuebot\\/followers\",\"following_url\":\"https:\\/\\/api.github.com\\/users\\/gissuebot\\/following{\\/other_user}\",\"gists_url\":\"https:\\/\\/api.github.com\\/users\\/gissuebot\\/gists{\\/gist_id}\",\"starred_url\":\"https:\\/\\/api.github.com\\/users\\/gissuebot\\/starred{\\/owner}{\\/repo}\",\"subscriptions_url\":\"https:\\/\\/api.github.com\\/users\\/gissuebot\\/subscriptions\",\"organizations_url\":\"https:\\/\\/api.github.com\\/users\\/gissuebot\\/orgs\",\"repos_url\":\"https:\\/\\/api.github.com\\/users\\/gissuebot\\/repos\",\"events_url\":\"https:\\/\\/api.github.com\\/users\\/gissuebot\\/events{\\/privacy}\",\"received_events_url\":\"https:\\/\\/api.github.com\\/users\\/gissuebot\\/received_events\",\"type\":\"User\",\"site_admin\":false}}",
    "Message-Header": {
      "X-Accepted-OAuth-Scopes": "public_repo, repo",
      "Server": "GitHub.com",
      "Access-Control-Allow-Origin": "*",
      "Date": "Fri, 31 Oct 2014 20:08:23 GMT",
      "Access-Control-Expose-Headers": "ETag, X-OAuth-Scopes, X-Accepted-OAuth-Scopes",
      "Cache-Control": "private, max-age=60",
      "ETag": "e190e34f817af76bee13b2c45eae724c",
      "X-GitHub-Media-Type": "github.v3; format=json",
      "Vary": "Accept, Authorization, Cookie",
      "Content-Length": 997,
      "X-OAuth-Scopes": "public_repo",
      "Content-Type": "application/json; charset=utf-8",
      "X-GitHub-Request-Id": "86A0:A40B3:2BC9CE2:1899064:33066C43"
    },
    "Status-Code": 200,
    "HTTP-Version": "HTTP/1.1",
    "Reason-Phrase": "OK"
  },
  "Request": {
    "Message-Body": "{\"state\":\"closed\"}",
    "Message-Header": {
      "Authorization": "token 1d67ee5c6a67127672b42bdfa1528111e03f2d74",
      "Accept": "*/*",
      "User-Agent": "Opera/9.27 (Windows NT 5.1; U; en)",
      "Host": "api.github.com",
      "Content-Length": 55,
      "Content-Type": "application/json; charset=utf-8"
    },
    "Request-URI": "/repos/google/guava/issues/736",
    "Method": "PATCH",
    "HTTP-Version": "HTTP/1.1"
  },
  "Meta-Data": {
    "source": "GHTorrent",
    "type": "real-world",
    "processor": "nz.ac.massey.ghtraffic.scripts.extractor.GHTorrentTransactionFactoryForIssueClosing",
    "timestamp": "Mon, 04 Dec 2017 20:17:54 GMT"
  }
}